[
  {
    "name": "apples",
    "price": "123.23"
  },
  {
    "name": "potatoes",
    "price": "987.12"
  },
  {
    "name": "bananas",
    "price": "234.54"
  },
  {
    "name": "carrots",
    "price": "345.65"
  },
  {
    "name": "onions",
    "price": "135.43"
  }
]